Flávio;coleta, armazenamento, combinação, analise de grande volume de dados e atributos dos mesmos, com velocidade na atualização, variedade, com dados reais (veracidade) e que gerem valor econômico;Estruturando os dados, eliminando dados nulos ou falsos, que extrapolam a realidade de algum atributo. ;Detectar necessidades ou assuntos recorrentes que as pessoas ;trabalhar com a filtragem e programando as análises dos dados, levantando prioridades e analisando as correlações.;"Volume - Grande quantidades de dados e atributosVelocidade - Tempo que leva para os dados atualizarem e quanto esses dados se "renovam"Variedade - Diferentes tipos de dados e atributos.Veracidade - Dados reais.Valor - Correlações que geram valor economico""olume - Grande quantidades de dados e atributosVelocidade - Tempo que leva para os dados atualizarem e quanto esses dados se "reno""lume";"Para montar diferentes "pontos de vista" sobre um mesmo contexto.""ara montar diferentes "pontos de vista" s""ra montar diferent";É o ciclo que os dados passam para gerar valor. É feito a coleta desses dados, por bots ou qualquer outro modo, armazenamento deles, com alta segurança, feito a combinação deles, montando correlações, feita a análise dessas correlações e após isso uma forma de visualizar esses resultados, graficamente por exemplo.
Victor Ribeirod e Camargo Machado;Transformar dados em soluções;Varia de acordo com o tipo de dado e a finalidade para que você precisa dos dados. Por exemplo, analisar espaços vazios em relação ao resto dos dados, tirar as informações que não são necessárias em determinadas situações, entre outros.;Fazer uma análise de cenário para avaliar se um determinado assunto tem um impacto grande na sociedade e a partir dele explorar situações nas quais podemos obter valores significativos tanto na parte de conhecimento quanto dinheiro;São  especialistas analíticos que têm as habilidades técnicas para resolver problemas complexos e auxiliar em outras profissões e áreas que tem determinadas carências;"velocidade - Velocidade com qual atualizamos nossas informações em períodos dos quais sabemos que realmente são dados que podemos usar para trabalhar em cima.volume - Os dados gerados no nosso cotidiano e os impactos que causam sobre todas as mídias e pessoas.veracidade - Se os dados são de fatos reais e se tem "moral' no que mostramvariedade - Tipos de dados que estão incluidos em uma mesma categoria, por exemplo: E-mail, temos varios tipos de e-mails,  trabalho, escola, propagandas,etc...valor - São os custos dos quais analisamos a importância dos dados e seus tipos, quanto foi investigo naquele trabalho sobre esses dados, quanto será pago por ele, o quanto ele realmente vale de fato.""elocidade - Velocidade com qual atualizamos nossas informações em períodos dos quais sabemos que realmente são dados que podemos usar para trabalhar em cima.volume - Os dados gerados no nosso cotidiano e os impactos que causam sobre todas as mídias e pessoas.veracidade - Se os dados são de fatos reais e se tem "moral' no que mostramvariedade - Tipos de dados que estão incluidos""locidade - Velocidade com qual atualizamos nossas informações em per";Para podermos ter uma ideia se de fato aqueles tipos de dados se cruzam, se eles tem uma relação de causa e efeito. Se a partir deles, é possivel determinar por exemplo um padrão de usuário que costuma fazer X coisas e quais costumam fazer Y coisas.;"Coletamos dados gerados externamente, armazenamos estes dados para depois combinarmos e definir através de uma análise se eles tem relações entre si que possam ser úteis para nós. Visualizamos estas relações para definir se estamos executando de forma correta o que pretendemos.PS: Na parte de análise e visualização podemos inverter a ordem, visualizando primeiro para ver se podemos alterar algo e finalmente analizarmos para entregar os resultados."
Alvaro leandro cavalcante carneiro;Big Data se refere às grandes quantidades de dados que são geradas diariamente na era do conhecimento, principalmente pela rede de internet que vem sendo cada vez mais difundida na sociedade, criando dessa forma inúmeras informações úteis, que podem ser utilizadas para otimização de processos, detecção de padrões comportamentais, desenvolvimento de inteligência artificial e  entre outras importantes  funções no mundo contemporâneo.;O tratamento de dados é feito muitas vezes através de algoritmos por se tratar de uma grande quantidade, volume e velocidade de dados, e tem como objetivo otimizar a análise de determinada massa de dados, eliminando tudo aquilo que não é útil para resolução do problema, e deixando de forma mais estruturada o que realmente deve ser trabalhado. Por exemplo, em uma escola se o cientista de dados quer saber apenas o nome dos alunos, ele deve eliminar tudo o que diz respeito a números para obter um filtro e se aproximar da informação buscada.;"Na primeira aula, através de um software e de alguns algoritmos, analisamos as mensagens ou "Twits" em tempo real no Twitter, sendo uma função extremamente útil para monitorar o que a massa populacional está pensando, visto que esta é uma rede social extremamente difundida, além de conseguir gerar tendências, pesquisa de mercado, criar um público alvo para determinado produto, ver a popularidade de alguma marca ou produto e detectar possíveis necessidades as quais os usuárias possuem.""a primeira aula, através de um software e de alguns algoritmos, analisamos as mensagens ou "Twits" em tempo real no Twitter, sendo uma função extremamente útil para monitorar o que a massa populacional está pensando, visto que esta é uma rede social extremamente difundida, além de conseguir gerar tendências, pesquisa de mercado, criar um público alvo para determinado produto, ver a popularidad"" primeira aula, através de um software e de alguns algoritmos, analisamos as mensagens ou "Twits" em tempo real no Twitter, sendo uma função extremamente útil para monitorar o que a massa populacional está pensando, visto que esta é uma rede social extremamente difundida, além de conseguir gerar tendênc""primeira aula, através de um software e de alguns algoritmos, analisamos as mensagens ou "Twits" em tempo real no Twitter, sendo uma função extremamente útil para monitorar o que a massa populacional está pensando""rimeira aula, através de um software e de alguns algoritmos, analisamos as mensagens ou "Twits" em tempo real no Twitter, s""imeira aula, através de um softwar"; O cientista de dados deve ser capaz de tratar e analisar de forma efetiva a maior quantidade de dados possíveis, para que consiga, a partir desses dados, gerar informações relevantes para solucionar seu devido problema, seja ele qual for.   ;"velocidade: se refere a velocidade que os dados são gerados em tempo real nas redes sociais e os outros meios de comunicação da internet.Variedade: diz respeito à  variedade de informações/atributos que são gerados e devem ser analisados.Veracidade: Trata da confiabilidade dos dados, sendo que grande parte das informações geradas estão sujeitas a erros ou estão desatualizadas.Volume: Grande quantidade de dados que são gerados por minuto na grande rede de internetValor: Como transformar os demais V's em algo que gere lucro, ou seja, manipular a informação ao seu favor.";Quanto maior a variedade de dados maior e mais preciso são os resultados obtidos, pois é possível, através destes, fazer análises em uma grande escala e detectar padrões existentes nas informações. No exemplo do filme Transcedente a inteligência artificial só é capaz de gerar uma consciência, isto é, copiar sentimentos, hábitos, memórias e uma personalidade, mediante à uma enorme variedade de dados que a consciência do protagonista possui para ser transferida e analisada pelo robô.  ;São algumas das etapas as quais o cientista de dados deve passar e dominar para conseguir trabalhar de forma efetiva. A primeira é uma das mais importantes, é a da coleta de dados, levando em conta a velocidade, a variedade e o volume desses dados. Depois é o armazenamento desse grande volume de dados. A combinação desses dados, isto é, o que deve ser usado ou descartado e quais as intersecções entre eles. A analise dos dados a qual é precedida pelo tratamento de dados, e por fim a visualização desses dados de forma mais estruturada, a fim de cumprir com o seu objetivo e gerar lucro ao profissional.
Ana Paula de Souza;BigData é o termo utilizado para descrever um volume de dados, que podem ser estruturados ou não, a forma com que esses dados sao tratados auxiliam na tomada de decisão, para que seja considerado bigdata é necessário que se tenha uma grande quantidade de dados(volumes), que sejam modificados com grande velocidade, de variadas fontes(variedades),sendo importante também a veracidade destes e o valor que irá gerar ao negócio.;"Quando se trabalha com dados é preciso ter um padrão para conseguir trabalhar como por exemplo em dados do tipo data onde antes de utiliza-lo é preciso saber a forma com que é feita a separação dos dados "/" "-", no caso de valores também é possível tratar espaço, virgulas, limites, e também é preciso analisar se toda a informação é relevante como por exemplo o caso de espaços vazios e números incorretos.""uando se trabalha com dados é preciso ter um padrão para conseguir trabalhar como por exemplo em dados do tipo data onde antes de utiliza-lo é preciso saber a forma com que é feita a separação dos dados ";Através do algoritmo foi possivel identificar palavras que estavam sendo utilizadas naquele momento, de forma que definimos qual a busca gostariamos de fazer e em tempo real era possível identificar quem e onde a palavra estava sendo utilizada, No caso esses dados podem ser utilizados para identificação da satisfação de um produto por exemplo, ou para localizar um possível cliente, alguém que naquele momento tenha a necessidade de um produto ou serviço que está sendo oferecido. Além do nome da pessoa existem inumeras informações que também são localizadas junto com a informação do twitter e através destas informações é possível gerar relações entre os dados adquiridos como locais onde há maior incidencia de determinada doença por exemplo.;Através da obtenção dos dados, o papel do cientista é analisar esses dados conseguindo fazer uma relação de causa e efeito, para através de informações do passado poder identificar possíveis comportamentos futuros.;Volume - alto número de dados em circulação Velocidade : são modificados rapidamente e é preciso identificar os dados mais recentes possíveis Variedade: são de várias fontes diferentes podendo ser estruturados ou não Veracidade : é preciso que os dados adquiridos sejam de fontes confiáveis para garantir que nenhuma decisão seja tomada considerando dados falsos  Valor : geram valor para o negócio;Existe um imenso volume de informações que não estão disponíveis em apenas um local, ou em um formato, o tempo todo em diversos canais é possível identificar opiniões,conhecimentos,padrões, quando se utiliza apenas uma fonte muito dessas informações seriam perdidas e não se levariam em conta tudo o que realmente está acontecendo no momento , desta forma utilizando diferentes fontes de dados é possível enriquecer o resultado agregando mais valor  através de diversos pontos de vista sobre um mesmo assunto.;Trata-se das etapas necessária para se trabalhar com big data. Coleta dos dados que são feitos usando variedade de canais disponíveis, armazenamento dos dados coletado, combinação dos dados, ou seja, o que os dados tem relacionado ao negócio que está sendo analisado, sendo validado sua aplicaçãpara determinado fim, posteriormente é feita a analise dos dados, de forma que se identifique relação de causa e efeito e a ultima etapa é a visualização das informaçõe, a forma com que o resultado será mostrado para que possa facilitar a tomada de decisão.
Arthur;"A arte de manipular grades volumes de dados, que na maioria das vezes estão não estruturados. Utilizando os 5V's (Volume, Velocidade, Variedade, Veracidade, Valor), assim podemos estruturar esses dados e encontrar uma utilização.Ex.: Uma empresa precisa saber os os clientes estão comentando.Através das redes sociais (onde encontro grande volume de dados não estruturados) posso criar um código que filtre apenas os internautas estão comentando sobre uma determinada empresa, e passar qual seria um feedback.  ";Devemos sempre ter certeza que os dados apresentados são verdadeiros, com isso aumentamos a porcentagem de certeza. Porque ao manipular uma grande variedade de dados, temos a chance de encontrar falacias, brincadeiras, erros, entre outros que iriam decair nossa analise. Devemos filtrar-los para retirar os erros e tentar deixar o mais limpo possível. ;"Através de um algorítimo que recolhia esse grande volume de dados de todos os tamanhos e tipos (variedade), filtramos eles de maneira que só exibi-se os que estivessem em português e que possuísse certas palavras especificas.Certas empresas poderiam pedir a opinião dos internautas sobre sua empresa ou determinado produto, e através dessa analise podíamos prestar trabalho a ela.   ";Eles exercem um pouco de cada função e tem uma grande importância para a empresa e o produto gerado. Conhecendo um pouco de matemática, analise de tendencias e ciência da computação, ele tem a função também de trabalhar com grandes volumes de dados, transformando em algo mais simples. Saber uma variedade maior de linguagem de programação. Sempre estar por dentro das principais tecnologias de mercado, entre outras características.;"Volume é o primeiro V do big data, ele representa principalmente a internet, onde podemos encontrar muitos dados que na maioria das vezes estão não estruturados, tendo que criar algo que os estrutures. Velocidade está como o segundo V, ele representa o movimento de transmissão.Variedade como o terceiro V, onde possuímos dados de todos os tamanhos e estilos.Veracidade que é se o dado é verdadeiro ou falso.Valor que esses dados (informações) possuem para uma empresa, pessoa, humanidade. ";Com um maior volume de dado temos mais informações para analisar e assim temos uma melhor resultado. Pois o big data não é big data sem um grande volume de dados, ele seria apenas banco de dados.;"A figura possui cinco processos onde temos a possibilidade de manipular os dados de forma que fiquem estruturados.Em primeiro temos a coleta de dados, onde eles vão estar de forma não estruturado.Depois o armazenamento que pode ser realizado em um banco de dados ou em algum tipo de arquivo como csv, txt entre outros.Em terceiro a combinação dos dados, ou seja, vemos quais são os ideais para o problema abordado.Apos esses processos, realizamos uma analise dos dados escolhidos.E por ultimo, não menos importante, temos o apresentável ao publico, ou seja, é a parte com interface onde os dados estruturados vão estar visíveis ao publico."
Bucicleide ;Coisa do capeta;Primeiro eles são separados uns dos outros, os bons vão pro céu e quem pecar vai pagar, quem pecar vai morrer;Gerar a 4ª Guerra Memeal;analisar dados;Vassoura Velha  Varre a Vara do Valter;taquipariu, sei lá;taquipariu, hein? a essa hora? olha aqui queridinho eu não sou obrigada, brigada
Carlos Donizete Moreira;É uma forma de análise de um grande volume de dados, obtidos através de um banco de dados estruturados ou não, para otimizar uma tarefa estatística e tomar decisões, seja de negócio, pessoal, industrial, acadêmica ou detectar padrões.;Como é uma ferramenta de mineração de dados, muito usada por estudantes e professores temos que tratar essas informações quanto a veracidade, pois os dados podem ser ou não ser confiáveis.;Conseguimos visualizar como por exemplo um espesso cano, e onde conseguimos enxergar em tempo real tudo que está se passando nesse cano. informações estruturadas e não estruturadas. Através dessas informações podemos tratá-las e tirar proveito disso, pois como exemplo ver as tendências dos consumidores e ter uma grande vantagem em relação aos concorrentes ou tomar decisões ou modelos de negócios por esses dados gerados.;Primeiramente o cientista de dados tem que gostar de estatística e matemática, pois ele deve analisar corretamente os dados para tomada de decisão, saber bem uma ferramenta de implementação (tipo linguagem de programação), entender de arquitetura de hardware e obter resultado que traga benefícios para os negócios da empresa.;1-Volume: É a quantidade de dados e mais seus atributos. 2-Velocidade: É a velocidade em que os dados são gerados, atualização de notícias on line, etc. 3-Variedades: Diferentes tipos de dados, estruturados ou não estruturados. (texto, multimidia, fotos, etc);Quanto mais dados históricos, combinação, variedade, os resultados tendem a ser mais precisos, Unir fontes heterogêneas (privadas e públicas), mas confiáveis.;1-Coleta: os dados podem serem estruturados ou não. 2-Armazena: são os dados históricos que estão no banco de dados. 3-Combina: Validade e dimencionamento dos dados. 4-Analisa: dados diversos são visualidados.
Carlos Eduardo Benedetti Lopes Junior;é um modelo de tratamento , disponibilização e utilização de dados com proposito e interação ao mundo exterior tratando com capacidade de uma quantidade enorme de informação  ;tratar os dados de forma estruturada para que a maquina tenha como reconhecer os dados que serão usados e ter um resultado preciso  ;"podemos usar dados publicados por uma massa para saber informações que diretamente não estão escritas, como gosto musical, clima de uma região, se onde a pessoa transita esta congestionado, etc ou como relatado no livro a fundação de Isaac Asimov "uma pessoa é imprevisível mas um grupo pode ser previsto"""odemos usar dados publicados por uma massa para saber inf";são analistas que usam de matemática e ciência da computação  para tratar e obter dados de formas variadas ;Volume: quantidade de dados produzida, Velocidade: se refere  a taxa em que esses dados são gerados, Variedade: manuseio de dados sendo estruturados ou não, Veracidade: o quanto essa informação é verídica, Valor: as vantagens que o Big Data pode trazer  ;pois quanto maior a quantidade de informação mais optimizado sera o sistema ;"essa figura se trata das etapas para uma boa analise de dados1. Caleta dados estruturados e não estruturados 2. armazenar  integrar e gerenciar os dados 3. onde este dado se encaixa 4. realizar analises pelos dados armazenado 5. visualização do resultado  "
Christopher;É a ciência que transforma um grande numero de dados desorganizados em estruturas organizadas e geram conhecimento em cima disso ;O tratamento é feito utilizando um (if dentro de um for) para retirar as informacoes incoerentes desses dados;"Utilizando o codigo fonte do twitter e filtrando com algumas palavras chaves, conseguimos ver oque os usuarios do Brasil diziam que contia essas palavras chaves em tempo real.Pode se utilizar para prever oque pessoas estao querendo politicamente em algum periodo de eleicoes, sendo assim utilizados em favor de um candidato para esse inserir essas vontades em seu discuro e campanha";Seu papel é o de organizar um grande banco de dados desorganizados e analisar-os.;"1-Volume: significa a grande quantidade de dados armazenados e gerados todos os dias na internet2-Velocidade: significa a velocidade que estes dados sao gerados todos os segundos3-Variedade: É a forma que um dado esta classificado, podendo ser organizado ou nao4-Veracidade: é a anailse dos dados para verificar se esses sao verdade ou falso5-Valor: é relacionado a negocios, onde usa-se dados em geral nao organizados para obter lucro";Pois com a variedade pode-se obter resultados mais precisos usando dados estruturados como tabelas e banco de dados ou nao estruturados como imagens, videos,  audios e documentos por exemplo;É o processo de trabalho de um cientista de dados, onde ele colecta dados, armazena, comina eles com outros para gerar dados mais completos, analisa esses para gerar dados estruturados e conhecimento, e finalmente mostra-se o trabalho final
Clécio Rodrigo P de Almeida;BigData -  É o processamento de um grande volume de dados ou seja informações dentro de um banco de dados de uma empresa ou em prol de uma empresa etc....;É aplicada as tarefas de mineração de dados, classificação, associação onde é analisado os resultados obtidos por cada método de cada tarefa.;Como vimos em aula, tais informações poderia por exemplo enviar um míssel teleguiado para onde desejar determinando a rota ou até mesmo mudando a ou curso de um navio que poderia colidir - se.;Basicamente é o estudo e melhoramento de informações ou dados;"Volume, velocidade, variedade, veracidade e valor.Volume - Quantidade do volume de dados disposto ou obtidos.Velocidade - é a velocidade no qual as informações ou dados são transmitidas.Variedade - é a variedade ou diferentes tipos de informações ou dados.veracidade - é saber se as informações ou dados são de fontes confiáveis ou verdadeiras.Valor - O que as informações ou dados obtidos podem agregar em beneficio ou favorecimento no quesito de informação.";"Toda informação deve ser analisada de forma criteriosa para que não venha ocorrer nenhum erro no futuro ou algo que possa prejudicar.Isso é tratar de forma consciente toda informação para aplica - la de forma correta.";Seria - coleta de informações, volume ou quantidade de informações, combinações das informações, analise de tais informações e visualização dos dados ou das informações.
Duny;slá;primeiro a gente pega os dados depois enfia eles goela abaixo da primeira criatura que aparecer na sua frente, fim;slá, eu não vim, tava dormindo em casa, não sou obrigada a fazer essas coisas;slá;Vassoura Velha Varre a Vara do  Valdir;slá, não assisti essa merda;taquipariu, voces viram aquilo? o nada acontecendo nessa tabela!
Elton Vargas Fernandes;BigData é a ciência que trabalha com enormes banco de dados. Está relacionado a coleta desses dados. o Armazenamento dos dados. A combinação entre os dados. A análise dos dados. E a visualização do resultado de todos os processos anteriores efetuados. Fundamental nos dias de hoje, quando há uma infinidade de informações que estão disponíveis, porém não estruturados, aí entra o tratamento de toda essa informação através do trabalho dos profissionais do BigData.;Desconheço o que é Weka, porém o tratamento de dados serve como um auxílio prévio para o desempenho e precisão da análise que será feita posteriormente. um exemplo que pode ser citado é o tratamento de uma imagem digital antes da aplicação de um algoritmo de detecção de cores. Sem esse tratamento prévio. o desempenho e a precisão do processo de execução do algoritmo será comprometido, chegando ao ponto de ser descartado por não atender os requisito preestabelecidos. ;São inúmeras as aplicações que podem ser executadas através da ferramenta exposta na Aula 1 de BigData. Um grande exemplo é a detecção de interesses das pessoas e a utilização desta detecção para uso por parte de empresas na área de marketing e propaganda. Outro exemplo é o uso por parte de instituições de segurança para detecção de comportamentos nocivos de pessoas. Outro exemplo é na execução de censos, levantamentos populacionais e de conduta. Podemos citar também, análises financeiras de organizaões.;O cientista de dados é um profissional relativamente novo no mercado de trabalho. Suas atividades estão relacionadas a trabalhos envolvendo dados, informações, elementos, fatos, conhecimentos, referências, aspectos e conceitos. Ele tem por característica, habilidades de gestão de estatísticas. Gerando assim conhecimento relevante para uma série de pessoas e organizações interessadas na ciência desses fatos e informações.;Volume: é a quantidade de dados gerados em um determinado momento podendo chegar a incrível marca dos zettabytes. Variedade: é a diferença imensurável dos dados gerados e de suas fontes. Velocidade: é a rapidez com que esses dados são gerados e processados. Veracidade: é a fidelidade com a realidade em que esses dados estão envolvidos. Valor: é o aspecto que traz a rentabilidade para os interessados. Podemos dizer que é o medidor da relevância dos dados refinados.;Uma máquina só desempenha o seu papel de forma satisfatória quando há um nível de inteligencia em suas atividades. Máquinas complexas necessitam de um nível absurdo de inteligência para realizar sua tarefas de forma adequada. A variedade é a chave da inteligência a ser aplicada por uma máquina. Ela possibilita que a máquina esteja preparada para muitas situações e circunstâncias que se apresentam durante seu funcionamento. Neste caso a variedade está relacionada com estar preparado.;A figura acima mostra a estrutura dos processos que são envolvidos na área de BigData. Seguindo a linha podemos ver a coleta dos dados, depois a armazenagem dos dados, depois a combinação que gera um contexto para os dados implicados, depois a análise, que podemos dizer que é a filtragem, o tratamento, a organização, a seleção e o estruturação dos dados relevantes, e por último a apresentação dos dados examinados para o utilizador.
Felipe Barboza de Oliveira;"    Bigdata é o termo dado para grande quantidade de dados armazenados, produzidos hoje por todo tipo de ferramenta tecnológica.    Sendo não apenas um termo, bigdata tornou-se uma ciência, um campo ciêntifico capaz de fornecer informações das mais variadas para os mais variáveis fins. Com o estudo e estruturação dos dados é possivle criar previsões de tendências sociais, previsão de mercado, epidemias e todo tipo de cituação que esteja ligada a alguma forma de tecnologia.      Embora póssa parecer um sonho, a grande quantidade de dados apresenta um grande risco, a veracidade. Uma parte  conciderável destas informações  são de caracter duvidoso e não podem ser levados a sério, cabe ao PROFICIONAL da área saber filtralos para chegar a uma análise mais condizente com a realidade.     ";Primeiro é feito a coléta de dados sobre o assunto em que se vai trabalhar e atravéz da definição de padrões existentes nas informaçãoes desejadas é possível filtra-los através de um programa produzido especificamente para trata-los e estrutura-los de maneira que os tornem úteis e de facíl análise .;"Com a chave de acesso fornecida pelo professor pudemos acessar a plataforma, e atravéz de palávras-chave foi possivel visualizar os dados relacionados a estas.    O com  twiter sendo uma plataforma muito popular entre a juventude atual seria possível detectar  tipos de tendências entre eles, como: vestimentas, alimentação e linguagem.    Com estas informações as empresa na área  de produção de alimento, roupas e marketing poderão encontrar formas mais eficases de atingir este público com mais eficiência.";"Ser capaz de analizar  uma grande quantidade de dados e gerar soluções práticas para os mais diverços tipos de problemas.Não apenás para resoluver problemas, o cientista de dados os análisa tambémem busca de insites para gerar nóvos conhecimentos e tecnologias que irão beneficiar o meio social em que ele vive.";"Velocidade:    Estetópico trata da velocidade em que os dados são produzidos e armazenados.Volume:    Este tópico trata da quantidade de informação produzida.Variedade:    Este tópico trata da diferença entre as informações.Veracidade:    Este tópico trata a o quão as informações são veridicas.Valor:Este trata do quanto se póde arrecadar monetáriamente com os dados.    Estes cinco tópicos sérvem como um fíltro para se trabalhar com os dados hoje em dia.";Quanto mais informação se tem sobre um mesmo assunto .;ab
Felipe Barboza de Oliveira;.;.;.;.;.;"Quanto mais informação se obtem sobre um mesmo assunto maior será as chances de se chegar a uma definição mais precisa do mesmo, ou se o assunto precisa ser "resolvido" de alguma forma, a obtenção de todas informações possíveis é o meio mais seguro de chegar em uma resolução fávoravel, se não, definitiva.""uanto mais informação se obtem sobre um mesmo assunto maior será as chances de se chegar a uma definição mais precisa do mesmo, ou se o assunto prec";"A figura acima explica os passos  que um cientista de dados realiza no trabalho com bigdata.    Primeiro vem a fase de coléta(collect), onde o ciêntista adiquire os dados conectando-se  a uma fonte (youtube, fecebook, etc).    Em segundo vem a estruturação dos dados, onde ocorre á análize destes e clacificação e armazenamento.    Em terceiro vem a combinação de dados, onde os dados relaciomados ao mesmo assunto são comparados e classificados.    Em quarto ocorre a análize dos dados, onde as informações,já classificadas, são  usadas para gerar todo tipo de solução ou tecnologia.    Em quinto vem a forma de exposição das informações por parte de plataformas tecnológicas sites e outros."
Felipe Zlatic Freire;BigData é trabalhar com um imenso fluxo de dados, podendo gerar, armazenar, coletar e analisar essa enorme quantidade de Dados para a partir disso transformar isso em Valor ou obter a melhor toma da de decisão.;Esse tratamento é chamado de mineração de Dados, onde analisa em meio a grande quantidade de dados, padrões determinados e voltados ao que realmente é colocado como importante, como associações, relacionamentos.;Conseguimos utilizando um servidor independente da plataforma, sendo software livre, para acessar a imensa entrada de dados e utilizando um código onde filtramos por palavras chaves, a entrada de dados e conseguimos mostrar somente o que nos interessa. Podemos utilizar esses dados para saber o que está atraindo as pessoas na atualidade e saber onde investir.;O cientista de Dados é um especialista em coletar e analisar informações nesse imenso fluxo de dados, por meio de filtros, onde consegue coletar as informações que são importantes para o que precisa e descarta aquilo que não lhe interessa. Analisando também aquilo que é tendência atualmente ou aquilo que esta sendo comentado com muita frequência.;"Volume - É o grande Fluxo de Dados, onde temos um volume imenso com diversas informações; Velocidade - É a agilidade no manuseio desses dados; Veracidade - É confirmar a origem e se realmente aquele dado é real, um dado verdadeiro; Variedade - Dados de diversas coisa, totalmente aleatórios e misturados com vários outros dados; Valor - É utilizar de forma correta esse grande fluxo de dados de forma onde conseguimos transforma-lo em Valor;";Para auxiliar na identificação e na veracidade dos dados sobre esse contexto, se ele realmente é real e dentro da realidade desse contexto.;A figura acima exemplifica um bom Analise de dados de uma plataforma, começando pela coleta de dados em diversas fontes seguindo para a armazenagem desses dados e verificar se são válidos esses dados, depois a combinação de Dados correlacionados ou próximos, Passando por uma análise mais complexa e separando o que realmente é importante e Visualizando todos esses dados selecionado e se realmente atende o que foi proposto.  
Fernando Silva Maransatto;"Um conjunto de conhecimento adquirido por meio de grande quantidade de dados estruturados e não estruturados de diversas fontes internas e externas.Para que isso seja possível, é necessário:1. Bom conhecimento de contexto e classificação para uma boa curva de pertinência. (dados relevantes)2. Utilização de ferramentas de captura, armazenamento e manipulação dos dados.3. Utilização de ferramentas que consigam realizar procedimentos rápidos de transferência de dados.4. Conhecimento sobre banco de dados estruturados e não estruturados5. Conhecimento sobre programação.";"Este tratamento são aqueles itens de 1 à 3 que respondi na pergunta "Qual é o papel de Cientista de Dados?"1. Coletar dados estruturados e não estruturados;2. Definir o armazenamento destes dados;3. Validar e organizar os dados:   3.1. Garantir o volume, a variedade, a velocidade, a veracidade e o valor dos dados;   3.2. Identificar a curva de pertinência para que o irrelevante seja até mesmo descartado e o que é importante seja considerado;""ste tratamento são aqueles itens de 1 à 3 que respondi na pergunta "Qual é o papel de Cientista de Dados?"1. Coletar dados estruturados e não estruturados;2. Definir o armazenamento destes dados;3. Validar e organizar os dados:   3.1. Garantir o volume, a variedade, a velocidade, a veracidade e o valor dos dados;   3.2. Identificar a curva de pertinência para que o irrelevan""te tratamento são aqueles itens de 1 à 3 que respondi na pergunta "Qual é o papel de Cientista de Dados?"1. Coletar dados estruturados e não estruturados;2. Definir o armazenamento destes dados;3. Validar e organizar os dados:   3.1. Garantir o volume, a variedade, a velocidade, a veracidade e o valor dos dad""e tratamento são aqueles itens de 1 à 3 que respondi na pergunta "Qual é o papel de Cientista de Dados?"1. Coletar dados estruturados e não estruturados;2. Definir o armazenamento destes dados;3. Validar e organizar os dados:   3.1. Garantir o"" tratamento são aqueles itens de 1 à 3 que respondi na pergunta "Qual é o papel de Cientista de Dados?"1. Coletar dados estruturados e não estruturados;2. Definir o armazenamento ""tratamento são aqueles itens de 1 à 3 que respondi na pergunta "Qual é o papel de Cientista de Dados?"1. Coletar da""ratamento são aqueles itens de 1 à 3 que respondi na ";"Como:Utilizando um algoritmo já trazido pelo professor, que se conecta à um serviço disponibilizado pelo Twitter e permite a consulta aos dados em tempo real.Possíveis Aplicações:1. Identificar gostos de um grupo de pessoas de alguma determinada região sobre um determinado assunto a fim de investir em algum produto ou serviço que terá grandes chances de lucrar.2. Identificar tendências para previsão futura a fim de tomadas de decisões e investimentos.3. Aplicação em WebBot pra garantir nota do projeto integrador do curso de Big Data no Agronegócio da FATEC Pompéia (Fundação Shunji Nishimura)";"1. Coletar dados estruturados e não estruturados;2. Definir o armazenamento destes dados;3. Validar e organizar os dados:   3.1. Garantir o volume, a variedade, a velocidade, a veracidade e o valor dos dados;   3.2. Identificar a curva de pertinência para que o irrelevante seja até mesmo descartado e o que é importante seja considerado;4. Analisar os dados:   4.1. Encontrar Relações de Causa-Efeito;   4.2. Classificar por categorias conforme o contexto;5. Gerar Relatórios com pareceres sobre situação atual analisada e recomendações para tomadas de decisões e esclarecimento sobre as tendências.O mais legal é que eu nem tinha visto e nem lembrado daquele desenho do "GoodData Analytics Platform - The Data Pipeline", na minha resposta ainda tinha faltado o ítem 3."". Coletar dados estruturados e não estruturados;2. Definir o armazenamento destes dados;3. Vali";"Volume: Quantidade de Dados (quantidade de registros e de informações sobre cada contexto)Variedade: Quantidade de Contextos que se relacionam entre si a fim de gerar relações de causa-efeito.Velocidade: Tempo em que os dados são atualizados.Veracidade: Identifica se os dados são confiáveis, verdadeiros.Valor: Identifica o valor que pode ser agregado ao utilizar os dados coletados..";"Isto é importante pois quanto mais dados temos sobre cada contexto, mais informações podem ser aproveitadas para uma análise mais abrangente.O BigData resolve o problema de análise por amostragem, pois o conhecimento gerado sobre as informações coletadas em um "todo" garante uma resposta certeira para os problemas antes conhecidos.Nós (humanos) somos capazes de ter opiniões e aplicar o conhecimento adquirido ao longo da vida, e este conhecimento é captado e acumulado em nosso cérebro ao longo dos anos por canais variados (5 sentidos) e por situações variadas da vida, como escola, família, trabalho, relacionamentos, amizades, crenças, etc. Para que seja possível aplicar a inteligência artificial nas máquinas é necessário criar os canais e situações variadas da vida para que ela possa ser um espelho do ser humano.BigData é um pré-requisito para a Inteligência Artificial.""sto é importante pois quanto mais dados temos sobre cada contexto, mais informações podem ser aproveitadas para uma análise mais abrangente.O BigData resolve o problema de análise por amostragem, pois o conhecimento gerado sobre as informações coletadas em um "todo" garante uma resposta certeira para os problemas antes conhecidos.Nós (humanos) somos capazes de ter opiniões e aplicar o conhecimento adquirido ao longo da vida, e este conhecimento é captado e acumulado em nosso cérebro ao longo dos anos por canais variados (5 sentidos) e por situações variadas da vida, como escola, família, trabalho, relacionamento""to é importante pois quanto mais dados temos sobre cada contexto, mais informações podem ser aproveitadas para uma análise mais abrangente.O BigData resolve o problema de análise por amostragem, pois o conhecimento gerado sobre as informações coletadas em um "todo" garante uma resposta certeira para os problemas antes conhecidos.Nós (humanos) somos capaze""o é importante pois quanto mais dados temos sobre cada contexto, mais informações podem ser aprovei";"A figura acima mostra o fluxo de trabalho de um Cientista de Dados, conforme respondi lá em cima.Pelo que entendi também este fluxo é específico de uma ferramenta chamada "GoodData" que deve ser uma "mão na roda" para um cientista de dados. Não vejo a hora de pôr a mão na massa. Será que já deu 400 letras?Não deu, então vou escrever mais um pouco aqui, espero que seja útil no tratamento dos dados à partir desta minha prova."" figura acima mostra o fluxo de trabalho de um Cientista de Dados, conforme respondi lá em cima.Pelo que entendi também este fluxo é específico de uma ferramenta chamada "GoodData" que deve ser uma "mão na roda" para um cientista de dados. Não vejo a hora""figura acima mostra o fluxo de trabalho de um Cientista de Dados, conforme respondi "
Gabriel Couto Martins;"Grande volume de dados onde se é possivel organizar e analisar-los. O profissional do bigdata tem a capacidade de extrair, organizar e analisar a fim de montar uma estratégia para otimizar e melhorar o que lhe é proposto.O bigdata é importante nesta era em que milhares de dados sobre diversos assuntos são gerados por minuto através de rede sociais, aplicativos, sites de pesquisa, sites de venda etc.";É de extrema importância filtrar os dados, fazendo com que os mesmos estejam aptos a serem analisados. Os dados não estruturados e os dados estruturados estão diretamente relacionados com o tratamento dos dados;"Os dados gerados pelo twitter não tem restrições, onde é possivel captura-los em tempo real na nuvemPara o ramo dos negocios é extremamente necessario saber as informações dos seus possiveis clientes, como por exemplo o que eles buscam, compartilham e visualizam na internet";Organiza e analisa os dados para que seja possivel montar uma estratégia para otimizar uma área como por exemplo no agronegócio onde é possivel através dos dados diminuir o custo total da plantação;"Volume -  o tamanho/volume dos dadosVelocidade - velocidade de atualização dos dados, hoje gerados em grande escala em apenas milissegundosVariedade - diferentes tipos de dados, usado para descubrir grupos de pessoas com os mesmos gostos geralmenteVeracidade - veracidade do dado, se ele é verdadeiro ou nãoValor - o valor do dado, quanto ele vale";Para ter diversos pontos de vista para a analise dos dados e o tanto de informações ser mais ampla e diversificada onde é possivel relaciona-los e encontrar sua causa;"O processo que os dados passam, onde eles são:Coletados de qualquer ambienteArmazenados para serem organizados/filtradosCombinados para validar e aplicar alguns delimitadores para o que a analise necessitaAnalisados e comparadosVisualizados e colocados em uma interface"
Gilberto Filipe Stefano;"É uma quantidade muito grande de dados juntos, que pode ser usado para encontrar soluções que reduza custos e diminua tempo.Esses tipos de dados podem estar organizados mais eles também podem estar desorganizados. O Big data pode ser usado para obter decisões e estratégias em diversos tipos de empresas";"Esse tratamento é feito através de uma mineração de dados que organiza os dados de uma maneira que se cria regras e padrões.Esse tratamento é feito para saber quais dados realmentes são importantesAo chegar no final de uma análise de dados iremos ter todos nossos dados que antes estavam desorganizados, transformados de um melhor modo e mais bonito para se ler e interpretar ";"Na aula 1 utilizamos uma API que é disponibilizado pelo twitter e com o auxílio de um código disponibilizado pelo professor visualizamos em tempo real diversos dados do twitter.Esses dados poderiam ser usados por empresas que tem seu próprio produto e através dos dados que pegamos do twitter saber se as pessoas estavam gostando ou não do produto dessa empresa";"Resolver quais problemas devem ser solucionados e ter as habilidades técnicas para a solução desses problemasEsses cientistas devem saber: Analisar tendências, computação e matemática";"1-) Volume: É a quantidade de dados2-) Velocidade: Analisar os dados em tempo real ou o mais rápido possível3-) Variedade: É o tipo de dados, existem infinitos tipos4-) Veracidade: Saber se um dado é verdadeiro ou não. Dados antigos não são confiáveis5-) Valor: Antes de começar a coleta de dados é bom saber se o tipo de dados que será analisado tem algum valor, tendo valor é possível ganhar dinheiro com a análise.";"Porque para uma mesma pergunta podemos obter infinitas respostas.E para o Big data quanto mais dados temos, teremos também uma melhor análise.";"Primeira figura: é feita a coleta de dados de diversas fontesSegunda figura: Os dados que foram pegos são salvosTerceira figura: É feito uma combinação dos dadosQuarta figura: Os dados são analisados de acordo com o que queremosQuinta figura: Visualizamos nossa análise de dados "
Guilherme Galego Martins;Big Data é obter dados, analisa - os, e por meio dessa analise gerar conhecimento para tomada de decisões em determinada areá. Por exemplo: eu quero saber quando é o melhor momento para vender soja, utilizando a tecnologia de Big Data eu consigo dados muito mais completos sobre a venda de soja, como a melhor data para se vender, e a media da quantidade vendida, essas informações agrega muito valor para o mundo moderno hoje em dia, pois conseguimos transformar informação em conhecimento para tomada de decissões;Através de mineração de dados;"Conseguimos através da utilização de um algorítimo conectado ao servidor do twitter que filtrava as mensagens do twitter, através de palavras chaves, escolhemos a palavra "Agronegócio" então só era exibido mensagens que tivesse "Agronegócio" incluída, era possível usar mais de uma palavra chave, as áreas de aplicações seria nas áreas de venda e marketing pois assim saberia quais pessoas se interessam por determinado assunto ou produto.""onseguimos através da utilização de um algorítimo conectado ao servidor do twitter que filtrava as mensagens do twitter, através de palavras chaves, escolhemos a palavra "Agronegócio" então só era exibido mensagens que tivesse "Agronegócio" incluída, era possível usa""nseguimos através da utilização de um algorítimo conectado ao servidor do twitter que filtrava a";Cientista de dados são profissionais capazes de coletar e analisar dados de uma maneira rápida e efetiva, e uma profissão que tem crescido muito nos últimos anos pela necessidade de se obter conhecimento através de analises de dados não estruturados com objetivo de gerar conhecimentos relevantes para determinadas áreas e assuntos.;"Velocidade, Variedade, Volume, Veracidade e Valor. Velocidade: e a velocidade que os dados são criados. Variedade: e a variedade de dados ou seja os diferentes tipos de dados. Volume: e o volume de dados ou seja a quantidade.Veracidade: saber se aquele dado tem veracidade ou seja que passa uma informação verídica. Valor: e o valor que aquele dado gera ou seja onde ele tem valor para ser utilizado.";Para se saber qual é o mais relevante e confiável, pois os dados são muitos variados e muitos são de veracidade duvidosa, por isso é importante ter uma variedade de dados para se chegar a qual dado e mais relevante e para conseguir fazer uma analise mais completa daquele dado.;Collect: significa a coleta de dados. Store: e o armazenamento dos dados. Combine: e a combinação de dados para a obtenção de um novo dado. Analyze: e a analise dos dados obtidos. Visualize: e a visualização dos dados obtidos e gerados.
iasmine;bigdata é grande quantia de dados, velocidade.;classificação dos tipos de dados.;Pesquisa de mercado, saber pelo que as pessoas se interessam etc.;saber classificar as coisas maior relevância, menor relevância.;velocidade- conhecimento se renova a cada 18 meses, valor- importância da informação, validade- até quando essa informação será verdadeira?, viabilidade- interessa saber disso?, variedade- várias informações para complementar um conhecimento.;para que a informação seja mais complexa.;1 coletar os dados 2 juntar os dados para que façam sentido 3 combinação de dados 4 analise de dados 5 visualizar todos esses dados de forma que façam sentido.
Igor Henrique Siriani;Big Data é um certo volume de dados, que pode ser grande ou não,  que é gerado em uma certa velocidade, podendo ser extremamente alta ou não, e que, então, são analisados, interpretados, catalogados e, se desejado, correlacionados para que a partir daí possa ser agregado um valor à essa informação;Os dados coletados são primeiramente organizados para que possam ser contados, então eles são combinados para que seja efetuada uma analise e só então são visualizados ;Na Aula 1 nós tivemos a possibilidade de visualizar Twitts de diversas partes do Brasil sendo publicados em tempo real e filtrar esses Twitts de acordo com palavras chaves que nós mesmo selecionamos. Através disso seria interessante para uma empresa fazer pesquisa de mercado, descobrir a opinião das pessoas a respeito da mesma, determinar se um produto seria bem aceito no mercado, dentre diversas outras possibilidades;Cientista de dados é o profissional que tem o papel de analisar, interpretar a traduzir volumes de dados além de usar curiosidade criativa para resolver problemas e agregar valor a esses dados;"Volume; Velocidade; Variedade; Veracidade; Valor.";A variedade gera a possibilidade de analisar e interpretar dados estruturados e não estruturados e, a partir de então,  combinar dados diferentes para encontrar padrões e correlaçõe;Primeiramente os dados são coletados, em seguida são armazenados, depois são combinados, posteriormente são analisados para que então possam ser visualizados 
Jean Kobayashi Ferreira Leonel;"BigData é a transformação dos dados coletados por máquinas, sensores ou seres humanos em conhecimento. É todo o armazenamento de dados que poderá ser analisado e transformado em conhecimento específico sobre uma área desejada. O termo "Big" refere-se a grande quantidade de dados gerados pelos equipamentos com o avanço da tecnologia de hoje em dia, e que se devidamente estudados e processados, ajudará nas tomadas de decisões desejadas. ""igData é a transformação dos dados coletados por máquinas, sensores ou seres humanos em conhecimento. É todo o armazenamento de dados que poderá ser analisado e transformado em conhecimento específico so";a;Visualizamos os dados em tempo real utilizando o programa Xampp e com a visualização de dados no Twitter é possível analisar qual é a tendência ou opinião de seus usuários e a partir disso fazer um pré ou pós levantamento de mercado sobre determinado produto ou qualquer outra coisa. ;O cientista de dados é uma nova profissão que surgiu nos últimos anos com o enorme avanço tecnológico mundial. Ele é responsável por analisar e entender a complexidade dos problemas gerados através das enormes quantidades de dados coletados. E a partir disso buscar a melhor solução possível para o cliente apenas com a analise de dados.;"Volume: quantidade de dados armazenados. Ex: 1 gigabyte de dados.Variedade: são as variedades de sistemas estruturados e não estruturados que geram dados. Ex: Youtube, Twitter, Facebook, etc.Velocidade: a velocidade em que esses dados são transmitidos, sendo algumas vezes em tempo real. Ex: Torre de comando de voos de um aeroporto. Valor: é o valor  que os dados poderão dar em retorno para a empresa ou para o cliente, pois esse é o objetivo ao se utilizar o BigData.Veracidade: é a certeza de que o dado coletado seja de valor real e confiável para ser analisado e não gerar falsas tomadas de decisões ou falsas analises.";Trabalhando com uma maior variedade de dados é possível gerar mais dados e informações, pois seus dados serão gerados de diferentes fontes, sejam elas dados estruturados ou não estruturados. ;"A figura acima representa a maneira com que os dados são trabalhados:Collect: os meios de coleta dos dados, seja por meio de rede sociais, sensores,etc.Store: espaço destinado para arquivar os dados coletados.Combine: é possível combinar 2,3 ou mais  tipos de dados, para se gerar uma nova informação.  Analyze: Estudar e analisar os dados para gerar informação e tomadas de decisões.Visualize: Visualização dos resultados gerados pelo processamento dos dados coletados para serem melhores compreendidos."
Johan Rafhael Maehashi;Big Data é um curso que visa o futuro, tratando e analisando grandes dados com máxima velocidade e precisão para melhor eficacia em diversas áreas da industria e outro, trazendo facilidades para empregados e empregadores. ;Normalmente os dados vem em quantidades enormes de dificil leitura e interpretação devido isto é preciso a utilização de ferramentas como o python para tratar os dados clasificado seus crecterires e descartando informações exedentes. ;Se fosse analisado todos os dados do Twitter poderia determinar qual área investir no comercio mundial de manera eficaz. Poderia ser escolhido os comerciais adequados para transmitir para cada pessoa no mundo. Com estes informaçoes poderiam ser feitas analises para beneficiar tanto o meio ambiente quanto a economia.  ;O papel do cientista de dados é análisar arquivor, clasificar as informaçoes fornecidas, descartar informaçoes exedentes, organisar dados e forne ser resultados com maxima precição.;"Volume: Envolve manusiar grande volume de dados presente no mundo. Velocidade: É necidade a das impresas que as infomaçoes cheguem  a eles o mais rapido pocivel para melhores analises.Veracidade: Ultilisar de dados veriticos. Valor: ultilisar de dados de alto valor.";A essa necessidade, pois, quando é visto a situação atraves de vários ângulos a informação fica mais rica.;A figura acima mostra o fluxo de dados. Separados em 5 partes. A coleta de dados, o armazenamento do arquivos, a comparação, a analise e por ultimo a visualisação de dos dados obtidos.
Johson Pomps;E a ciência que explica o grande volume de dados, kabalisticos, geométricos, ornamentais que servem de estrutura para criação do universo e das diversas formas de vida, materiais e imateriais que compõem a existência infinita de todos os seres.;Tratamento de reflexão e psicologia reversa são os melhores para esse problema;Poderia utilizar os dados para calçar o sapatos e pentear o cabelo dos carecas e morder as proprias  costas;Fazer experiências com informações;"Volume, grande altura do som,Velocidade, ouvir correndoVeracidade, está escritoVariedade, funk, sertanejo, rock e eletrônicaValor, 20 reais a entrada";Por que sim;Uma nuvenzinha, umas torres, bolinhas, triângulos e letras
Jônatas Ponciano Avelar;Big data é um termo utilizado para referir -se ao grande volume dedos. Mas o que um profissional de Big data faz? Ele vai filtrar esse grande número de dados, e produzir conhecimento, pois hoje estamos na era do conhecimento. ;É necessário que esse grande volume de dados seja filtrado, utilizando ferramentas e a própria programação em si, assim essa ferramenta vai realizar a análise de algorítimos.   ;Usando ferramentas como o xampp e uma chave do twitter, utilizando a programação em php conseguimos visualizar dados em tempo real, relacionado a pesquisa que fazíamos.;Ele irá montar insights a partir de dados que conseguiu filtrar, assim produzindo conhecimento. O cientista de dados irá trabalhar com esse grande volume de dados.;"Volume- relacionado ao volume de dados que serão analisados;Velocidade- grande velocidade de informações e conhecimentos adquiridos;Variedade- Variedade de informações;Veracidade- é preciso que tais dados sejam verídicos e atuais, por isso a verificação desses dados é muito importante;Valor- refere-se a riqueza dos dados, e o lucro que isso irá gerar.";Pois há conceitos em que uma informação completará a outra. E temos que lembrar que muitos dos dados não são verdadeiros.;A primeira imagem refere-se a coleta de dados, a segunda ao armazenamento, a terceira a verificação de combinação dessas informações, a segunda refere-se a análise e verificação dessas informações, e a segunda refere-se visualização desse conhecimento.
Leandro;Big data é a área da ciência da informação que trabalha com grande volume de dados, velocidade, veracidade, valores, variedade de informações como, textos, imagens, áudio, utiliza supercomputadores, computação em nuvem, sensores e softwares de  inteligência artificial para analisar esses dados, validar e gerar valor, big data trabalha com informações em tempo real e pode prever comportamentos, e vai além das tecnologias que trabalham apenas com análise do passado, o big data trabalha com o futuro.;Conversão e validação de dados, como datas, moeda, formato etc;Monitoramento da sociedade, previsão de comportamento e manipulação de informações.;Gerar valor para os dados, de forma que o grande volume de dados possam ser transformado em informações úteis para alguma tarefa.;"Volume, grande volume de dados, terabytes. Velocidade, supercomputadores, computação em nuvem, processamento em tempo real.Veracidade, informações verdadeiras, verificadas, consistente.Variedade, todo tipo de informação, texto, planilhas, imagens, áudio, sensoresValor, informações úteis para solucionar um problema ou prever um acontecimento";Aprendizado profundo, quanto mais amostras mais possibilidades de acerto;É um mapa do conceito de fluxo é arquitetura de um sistema big data completo.
Lucas de Brito Silva;Big data é a ciencia que trabalha com o genciamento de um grande volume de dados, visando sempre preservar seus principios, como os cinco Vs. Ou seja, o big data busca gravar uma grande quantidade de dados, trata-los e por fim gerar um resultado cujo qual terá um valor, tanto economico quanto valor de importancia para a sociedade. Seu diferencial está no fato de não trabalhar com previsões e estimativas, mas tratar os dados como um todo e realizar um tratamento com todos esses dados, gerando informações e conhecimento.;O tratamento de dados é de extrema importancia, haja vista que esse passo é onde pode ocorrer a eliminação de descrepancia, dados nulos ou invalidos, dados que não sõ valorosos para determinada ocasião e até mesmo a definição de pertinencia. Esse tratamento de dados ocorre com a programação do que é necessario ou não para determinadadas épocas ou ocasiões e essa atividade normalmente é realizada pelo cientista de dados ou por algum gestor ou programador de banco de dados.;Os dados coletados no Twitter em tempo real, quando sem filtros pode-se dizer que não têm valor mensuravel, porém ao passar por filtros e tratamentos é possivel gerar valor e realizar operações que demonstram, por exemplo, quando uma Empresa é citada, assim vizualizando a opnião do publico e buscando suprir as necessidades que são postadas a todo momento, o que provavelmente, caso fosse realizado, aumentaria o rendimento da empresa e satisfaria seu publico, por exemplo.;O Cientista de dados é o profissional que trabalha com o a analize, armazenamento, filtragem e atividades afins que estejam relacionada a transformação de dados em informaçẽos, conhecimento ou algo de valor. Além dessa função o cientista de dados busca pesquisar e estudar informaçoes que estejam por trás de alguns dados, as quais podem acarretar mudanças plausiveis em eficiencia ou tamanho de armazenamento, por exemplo.;"Os cinco Vs do big data podem ser considerados colunas de sustentação para essa ciência tão complexa. Eles demonstram como pode ser realizado o tratamento de dados.O primeiro V é relacinado ao Volume, o qual tenta coletar o maximo de dados possivel.O segundo é relacionado a velocidade, em que há uma ligação com a eficiencia pela qual esses dados são coletados.O terceiro é a variedade. Esse tópico está ligado a quantidade de diferenças encontradas nesses dados, os quais normalmente não seguem um padrão.O quarto V está ligado a veracidade, ou seja, observa se os dados coletados possuem uma verdade por trás ou se são dados invalidos.Por fim temos o quinto V, o qual está realacionado ao valor que é dado a essas informações quando passam a ser dados estruturados, por exemplo, e agregam algo à alguem.";"A variedade de dados é de suma importancia para o Big Data, porque através desse ponto que é possivel realizar a média dos dados coletados. Ou seja, através desse ponto podemos pegar informações de diferentes "pontos de vista" e assuntos que irão além de uma linha padronizada e futuramente agregarão no ponto de valor.Por exemplo, se um ponto variante de um problema surgir sobre determinado assunto e não estiver inserido em um banco de dados e estiver em outro, o banco de dados que possuir essa variedade será mais valioso que o banco que possuir somente padrões."" variedade de dados é de suma importancia para o Big Data, porque através desse ponto que é possivel realizar a média dos dados coletados. Ou seja, através desse ponto podemos pegar informações de diferentes "pontos de vista" e assuntos que irão além de uma linha padronizada e futuramente agregarão no ponto de valor.Por exemplo, se um ponto variante de um""variedade de dados é de suma importancia para o Big Data, porque através desse ponto que é possivel realizar a média dos dados coletados. Ou seja, a";A figura acima demontra, basicamente, com é realizado o tratamento de dados, desde sua  coléta até sua vizualização de maneira facil a ser consumido. O primeiro passo é a coleta de dados em que é possivel ter um grande volume e variedade. Após isso é realizado o armazenamento dos mesmos e à posteriori é realizado a combinação e analise desses dados, em que é possivel realizar uma observação e uma filtragem de descrepancias e por fim é realizada a visualização desses dados de maneira que possa ser facilmente absorvido pelas pessoas. 
Luiz Alberto Hiroshi Horita;Originalmente, entendia-se por Big Data simplesmente como um conjunto de dados impossível de se manipular  ou chegar à uma conclusão através de programas convencionais. Atualmente, Big Data é um termo que remete ao saber lidar com esses conjuntos de dados através de tecnologias mais avançadas (mineração de dados, inteligência artificial, aprendizagem de máquina, etc), atingindo um nível de assertividade maior e identificar tendências e oportunidades, seja de mercado, de jogos, de moda, entre outras.;"Os dados podem ser coletados em diversos formatos e organização (por exemplo, csv, txt, rdf, owl, dbf, dentre outros), e a partir daí, para que tenha uma melhor performance na análise desses dados, devemos tratá-los. Um bom exemplo disso é o que temos feito nas últimas duas semanas na disciplina de Introdução à Big Data, no qual, dentro de um contexto, foram listados o que era relevante para tomada de decisão sobre um determinado problema; e a partir disso os arquivos de dados foram filtrados e organizados de forma a facilitar e melhorar a visualização do que é realmente pertinente ao caso.";"Na Aula 1, pudemos acessar o canal do Twitter em tempo real; em outras palavras, foi possível ver todas as postagens do site em tempo real. No Twitter, cerca de 547 mil postagens são realizadas por minuto, e tendo acesso ao canal de stream dessa rede e filtrando, através de palavras chaves, o que queremos procurar, podemos analisar o que as pessoas estão pensando e onde elas se encontram, e estimar uma tendência e conseguir ter uma tomada mais assertiva de estratégias.";"O cientista de dados é o profissional que carrega consigo um conjunto variado de conhecimentos técnicos e junto com sua curiosidade sobre detalhes de um problema, consegue se aprofundar e chegar a uma conclusão. É uma junção de conhecimentos em matemática e estatística, ciência da computação, habilidades de análise e classificação de dados.Podemos fazer uma analogia do cientista de dados com um co-piloto de rally, o qual não tem um conhecimento técnico aprofundado sobre uma ferramenta (que seria o motorista e o veículo), mas conhece o caminho e dá as coordenadas ao motorista.";"Os 5 v's do Big Data são: Volume, que é o cruzamento da quantidade de elementos com a quantidade de aspectos de alguma informação; Variedade, que é existência de diferentes dados estruturados ou não estruturados, que de alguma forma podem se correlacionar em diferentes contextos; Velocidade, que é a frequência em que novos dados são gerados ou atualizados; Veracidade, que é o nível de confiabilidade dos dados e da fonte de onde os mesmos foram extraídos; e Valor, onde verifica-se se os dados analisados tem ou não valor dentro do contexto em que se inserem.";"Pois, dentro de um mesmo contexto, pode conter diversos fatores que podem influenciar (ser causa) ou ser consequência (ser efeito) de um fato; ou seja, obter uma grande diversidade de dados dentro de um contexto, pode aumentar as chances de se encontrar correlações de cause e efeito do problema em tratamento.";"Na figura acima, encontram-se os passos principais para a realização de uma análise de dados. Primeiramente, coleta-se os dados (estruturadas ou não estruturadas) de diferentes fontes. Esses dados devem ser organizados e armazenados, sem ainda levar em consideração se tem ou não valor. Após organizados, são colocados dentro do contexto e analisados, de forma a selecionar o que de fato pode ter valor dentro de todo o estoque de dados.Tendo os dados pertinentes em mãos, estes são submetidos a análises descritivos e predefinidos através de diversas funções e ferramentas, para conseguir chegar a alguma conclusão. Por fim, apresenta-se os insights de forma organizada e compreensível."
Otavio Gomrd;Big Data é grande quantidade de dados armazenados, o big data tem como principio tratar esses dados e agregar um valor a eles, muitas vezes informações perdidas podem se tornar valiosas se juntas e tratadas da maneira certa, o bigData contem 5 V's Volume,Velocidade, Variedade,Veracidade,Valor;Os dados são armazelos de diversas formas sejam estruturados aonde temos uma base de dados para se tratar adequadamente esses dados e saber sua integridade, não estruturados as informações são capturadas de diversas áreas, plataformas,site,aplicativos, entre outros e assim deve ser feito um tratamento mais rigido para conseguir organizar essas informações antes de trabalhar com elas e aplicar técnicas de bigdata ou técnicas de manipulação de dados;Através dos dados captados em tempo real podemos detectar nichos de mercados ou o assunto que estão mais ativos no dia a dia das pessoas, podemos detectar oque é falado sobre esportes, agricultura, politicas, entre outros , com palavras chaves e essas informações podem ser tratadas e criar um valor pra empresas que desejam lançar um produto, ou saber oque estão comentando sobre seu produto, descobrir possíveis ajustes e melhorias em algum produto, ou oque agrada determinado tipo de cliente;Tem como papel tratar grandes quantidades de dados realizar pesquisas e saber quais são as tendencias de mercado, o cientista de dados pode atuar em diversas áreas trabalhando com as informações ele e uma chave fundamental para as empresas que desejam melhorar ou inovar pois tratando as informações certas ele e capaz prever tendencias através da tratativa de informações ;"Volume é a quantidade de dados que são gerados em massa em minutos , atualmente é gerados milhões de informações sobre o mundo através de varias ferramentas,sites , aplicativos entre outros.Velocidade é o tempo que é gerada uma nova informações sobre determinado assunto.Variedade é como os dados estão estruturados , pois eles pode ser estruturados são armazenados em bancos de dados e seguem algum padrão, não estruturados são dados misturados de diversas ferramentas Veracidade é a consistência desses dados para tratar a veracidade devemos ver o tempo que essas informação esta correndo e se condiz com os dias atuais, se as informações são verídicas os dados pode sem usados adequadamentes.Valor esta ligado ao quanto essas informações são relevantes ou tem um valor agregado, as informações quando tratados pelo bigdata deve passar por perguntas para saber se elas tem um valor relevante.   ";A variedade de dados possibilita uma analise mais detalhada e critica sobre determinado assunto assim gerando um valor mais relevante para essa informação pois tem se uma consistência e uma base de informações maior para se analisar, a variedade de dados não vem sozinha ela vem vinculado aos 5V do BigData e com isso pode-se ter uma maior integridade das informações e atingir o objetivo esperado;O primeiro estagio e a coleta de dados aonde é feita a coleta de algum lugar de uma grande massa de dados, estes que serão estruturados ou não e serão armazenados em algum lugar, o segundo estagio e o banco ou o armazenamento este lugar é onde a informação ficara guardada para ser tratada futuramente, a terceira sera feita a combinação das informações e de dodos os dados armazenados criando grupos de informações e trabalhando com eles esses dados começam a ser organizados para gerar informações relevantes e consistentes, o quarto estagio é a analise dos dados pegamos todas as informações já tratadas e analisamos para saber quais são relevantes para ser trabalhadas e classificadas para determinado trabalho, assim podemos ter uma visão se as informações são capazes de atingir as expectativas, o ultimo estagio e o resultado geral de todas as informações captadas e tratas aqui temos um ambiente para estudar oque acontece em todas as áreas pesquisadas ou armazenadas aqui é  usado por pesquisadores, cientistas para aprofundar e aperfeiçoar o conhecimento e os resultados atuais do mundo ou regiões que estão sendo pesquisada. 
Paulo Sergio de Freitas Junior;"Se levarmos ao pé da letra, refere-se a uma grande quantidade de dados, porém como tenho aprendido no curso a ideia do Big Data vai além desse conceito.O Big Data entendo que seja você ir além das análises de BI que seria: coletar determinados dados, organiza-los de forma estruturada, analisa-los conforme nossa necessidade e/ou interesse, gerar relatórios para tomadas de decisões em empresas e monitora-las. Pode-se dizer que até esse ponto o Big Data é igual, porém entendo que ele hoje está mais ligado ao Big Data Analytics que seria algo a mais como: analise em tempo real de informações, cruzamento de diversos tipos de informações para criar insights sobre produtos, tendências de mercado, valorização de minerais e afins. Para o termo Big Data considera-se 5Vs, são eles: Volume, Velocidade, Variedade, Veracidade e Valor, sendo que em alguns casos os dois últimos não são considerados partes do Big Data.";Pode-se identificar um padrão na informação que precisamos ou que consideramos correto, e através do algoritmo considerar informação relevante ou não para as analises que estamos fazendo, descartando assim as informações que divergem do padrão ou da base que queremos analisar.;"Criamos um código que tinha uma chave de acesso a base de dados do Twitter, nele era possível ver uma pequena parte de todos os posts que as pessoas faziam ao redor do mundo.Com filtros e melhorando o código poderíamos identificar acidentes em determinada região ou ao redor do mundo, comparar veracidade de determinada informação, pensamentos a respeito de um produto, analisar tendencias de algum nicho de mercado, as aplicações para os dados são grandes, e variam de acordo com a necessidade e complexidade do código que está montando.";Analisar e resolver problemas mais complexos, criar previsões e tendencias de mercados.;"Volume, Velocidade, Variedade, Veracidade e ValorVolume é a quantidade de dados coletadosVelocidade é a velocidade que os dados são atualizados e processadosVariedade é a quantidade diferente de informaçõesVeracidade é a confiança nos dados que são coletadosValor é a importância dos dados que estão sendo coletados";Para cruzarmos as informações de o porque de determinada analise, para não olharmos apenas para determinados dados e concluirmos uma analise sendo que não avaliamos todo o contexto, para entendermos todos os fatores que estão influenciando o resultado final da analise, seria como se fizéssemos uma analise de que na quarta-feira os passes de ônibus são vendidos mais do que nos outros dias, e criássemos uma alteração no sentido do fluxo para aquele dia da semana, e que depois de duas semanas o dia com maior venda fosse na quinta, se tivéssemos olhado o contexto entenderíamos que o motivo dessa alta nas vendas era porque o dia de jogo era na quarta e porem foi decidido que mudaria para a quinta feira o dia do jogo, então para mudar o sentido do fluxo o melhor dia seria na quinta-feira.;"Collect: é a coleta de dados tanto estruturados como não estruturados.Store: é o armazenamento dos dados que foram coletadosCombine: é combinar os diversos tipos de dados coletados vinculando suas singularidadesAnalyze: é avaliar os dados que foram combinados e retirar os que são fora do padrãoVisualize: após terminado as analises utiliza-se para criar insight de determinados assuntos e definir qual melhor decisão a se tomar"
Pedro Prates Mariano Sant'Anna de Oliveira;BigData é um grande volume de dados, que podem ser estruturados ou não estruturados, esses dados podem impactar no dia a dia de uma pessoa ou de uma empresa, a quantidade de dados as vezes não importa o que realmente importa são o que esses dados significam para alguém ou para uma empresa.;O tratamento é feito de modo que utilize padrões e regras significativos para os tipos de dados. Assim filtrando os dados como no trabalho que foi pedido para ser realizado onde deveriamos cruzar dados e para isso deveriamos fazer um tratamento tirando onde estava zerado e onde não tinha virgulas.;"Na aula um utilizamos um sofware para capturar dados em tempo real do que estava sendo falo no twitter brasileiro. Com esses dados como fizemos na aula podemos ver coisas especificas que as pessoas estão falando, como por exemplo delimitar no programa palavras chaves como agronegócio, BigData, Drone, e com esses dados podemos analisar o que está sendo falado e ver qual  é a tendencia de mercado, se aquele assunto está repercutindo muito, se um produto esta sendo bem avaliado entre outras coisas.";Ele pega dados que estão soltos e aleatórios e reorganizam eles para dar feedback para empresas e assim dependendo do assunto para qual o cientista de dados foi contratado ele pode falar de como esta a tendencia de mercado sobre o produto da empresa ou até mesmo ajudar a diminuir os gastos da empresa.;"Volume: É a quantidade enorme de dados gerados diariamente pelas bilhões de pessoas ao redor do mundo.Velocidade: É a velocidade com que se obtem dados mais atualizados assim sendo mais relevante.Variedade: São os dados que são gerados em diferentes plataformas como redes sociais, e-mail entre outros.Veracidade: Os dados que estão sendo obtidos precisam ser verídicos pois assim podemos confiar no que está sendo executado.Valor: Quanto mais importante for um dado, mais nos devemos saber fazer as perguntas certas no inicio do processo da coleta de dados.";É importante para que possamos analisar de varias formas diferentes os dados sobre um mesmo contexto, como por exemplo analisar a popularidade de um produto em redes sociais diferentes e ver como o publico esta reagindo e coletar os dados.;A figura acima esta falando sobre os cinco V's do BigData, e explicando o que é cada um e para que eles servem. 
Rafael Faleiros dos Santos Petraca;"É saber filtrar quais as informações necessárias(dentro de inúmeras e desordenadas) e saber trabalhar com elas, gerando algum valor.";"Os dados são filtrados de acordo com a pertinência, e o que eles vão gerar de valor. ";"Inúmeras aplicações, desde analisar perfil de clientes, achar terroristas, saber de acidentes antes de acontecerem, monitorar crescimento de população e suas tendências...";O papel é saber fazer as perguntas certas, para seus problemas.;"volume - os dados se encontram em uma imensidão;velocidade - os dados são formados em um tempo muito rápido;veracidade - algumas informações são disponibilizadas de qualquer forma ;variedade - são muitos tipos de informações ;valor - essas informações podem gerar algum valor,  de alguma forma;";"Pois assim o "leque" de informações é maior, ficando mais específico. ""ois assim o "leque" de informações é maior, ficando mais""is assim o "leque" de informações é maior, ""s assim o "leque" de informaçõe"" assim o "leque" de ""assim o "l""s";"O "caminho" dos dados até serem transformados em informações e gerarem algum  valor. "" "caminho" dos dados até serem transformados em informações e gerarem algum  valor"""caminho" dos dados até serem transformados em informações e gerarem algum  valo""caminho" dos dados até serem transformados em informações e gerarem algum  valo""aminho" dos dados até serem transformados em informações e gerarem algu""minho" dos dados até serem transformados em informações e gerare""inho" dos dados até serem transformados em informações e g""nho" dos dados até serem transformados em informações""ho" dos dados até serem transformados em informaç""o" dos dados até serem transformados em inform""" dos dados até serem transformados em infor"" dos dados até serem transformados em infor"
Renan Pedro Zulian Ferreira;Em poucas palavras, big data é a tecnologia que manipula informações e conhecimentos, gerando novos conhecimentos com valor agregado. Geralmente essas informações tem 5 características: (Volume, Velocidade, Variedade, Veracidade e Valor);É analisado a veracidade dos dados, ou seja, se eles são verdadeiros e confiáveis. Depois disso é filtrado as informações mais importantes para o análise.;Conseguimos visualizar aquelas informações porque o Twitter é uma rede social que libera as informações(tweets) dos usuários. Muitas empresas utilizam informações como essas para saber onde os compradores dos seus produtos estão e o que eles falam a respeito dele.;Cientista de dados é um aplicador de bigdata. Ele colhe informações e conhecimentos e manipulam para gerar novos conhecimentos com valor agregado.;"Volume: Enorme quantia de dadosVelocidade: Velocidade que as informações são chegadasVariedade: Tipos de informaçõesVeracidade: Dados confiáveis ou não confiáveisValor: Dados que tem valor econômico para empresas";É importante pois a partir dai é possível verificar a veracidade dos dados.;Na imagem mostra como é tratado os dados no big data, desde a coleta até a visualização.
Ricardo Heiji de Souza Seike;No Big Data, busca-se gerar melhorias e soluções por meio da análise e combinação de dados, gerando previsões, estimativas e soluções para diversos problemas. O profissional da área de Big Data é capaz de analisar e combinar grandes quantidades de dados de diferentes àreas de modo a encontrar relações de causa e efeito, prevendo e resolvendo eventuais problemas.;Primeiramente, deve-se garantir que os dados vêm de fontes confiáveis para que não sejam analisados dados falsos. Em seguida, os dados devem ser estruturados para que possam ser entendidos e manipulados por máquinas, uma vez que dados não estruturados tornam a analise lenta e falha, já que há poucas máquinas capazes de entender este tipo de dado de forma automática, sem auxílio externo. Para tal, os dados não estruturados (filmes, fotos, comentários informais) são coletados, organizados e dispostos de forma estruturada para que as máquinas possam consumí-los de forma mais rápida e eficiente.;"Ao acessarmos o banco de dados do Twitter e por meio de uma aplicação em python, foi possível coletar os dados dos tweets em escala nacional (apesar de haver a possibildade da coleta mundial) sobre determinadas palavras chaves, em tempo real. Uma vez que o Twitter é uma das redes sociais mais utilizadas no mundo, a quantidade de dados em tráfego é gigantesca; ser capaz de coletar e analisar os dados em trânsito nesta rede em tempo real possibilita uma infinidade de aplicações diferentes, desde pesquisas de opinião e satisfação, análise de mercado, previsões de acontecimentos / eventos, entre outros.";Cientista de dados é o profissional capaz de organizar, tratar e analisar diversos tipos de dados e resolver problemas por meio da correlação entre estes. Um cientista de dados pode encontrar soluções ao analisar dados de fontes diferentes juntos e encontrar uma relação entre estes, ou também (principalmente) realizar previsões por meio da análise dos dados, permitindo a ele desenvolver soluções para problemas antes que estes aconteçam.;"Velocidade: Velocidade de atualização dos dados Veracidade: Garantir a precisão e a honestidade dos dados coletadosValor: Possibildade de agregar valor por meio da utilização dos dadosVariedade: Dados de diferentes tipos e àreasVolume: Grande quantidade de dados úteis";Uma maior variedade de dados permite que um maior número de relações seja testada, e portanto haja uma maior possibilidade de encontrar uma relação válida e relevante na solução ou prevenção de um problema.;"A imagem mostra como funciona a análise dos dados no Big Data: primeiro coleta-se os dados propriamente ditos, estejam estes estruturados ou não; em seguida, os dados são armazenados e organizados em um banco de dados para sua futura utilização; em seguida, realiza-se o correlacionamento entre diferentes tipos de dados na intenção de encontrar relações significantes entre estes; os dados combinados são analisados para verificar e confirmar a existência de tais relações; por fim, os dados são dispostos de modo que possam ser entendidos por humanos. (As duas últimas partes podem ser trocadas de lugar no processo, uma vez que muitas vezes analisar dados organizados é muito mais fácil do que analisar dados desorganizados)."
Samuel Licorio Leiva;"É a organização e gerenciamento de dados, transformação de dados não-estruturados em dados estruturados, direcionamento de informações, etc.Apesar de ser um termo relativamente novo, essa área está tomando uma gigantesca proporção, por poder ser aplicada a todas as outras áreas e forma eficaz e efetiva.O BigData pode ajudar qualquer pessoa.O objetivo principal de um profissional de BigData é buscar soluções práticas e eficazes.Informações como estas que estão sendo geradas nestes relatórios, podem ser utilizadas em várias aplicações, como, por exemplo, sabendo-se que pessoas do sexo masculino, com média de 22 anos e residentes entre Marília e Tupã costumam comer arroz no almoço, é possível que os responsáveis pelas vendas de arroz de certa empresa procurem saber sobre a satisfação dos clientes da região, afinal, grande parte dessa população é, provavelmente, cliente dessa marca. E se não for, os vendedores devem pesquisar saber o "Por quê?" disso, encontrando assim, uma solução.Ou essas informações podem ser vendidas também à uma fábrica de calçados, para que eles produzam os calçados preferidos dos alunos de 22 anos, da região de Marília que cursam BigData no Agronegócio, e que esses calçados possuam o tamanho padrão, para que não haja excesso de estoque de alguns tamanhos, e falta de alguns outros, devido à grande demanda.Esses são apenas pequenos exemplos de aplicação com os próprios dados coletados nestes formulários. O nome disso é BigData, ou seja, um profissional da área colhe esses dados, organiza-os e dá valor à eles."" a organização e gerenciamento de dados, transformação de dados não-estruturados em dados estruturados, direcionamento de informações, etc.Apesar de ser um termo relativamente novo, essa área está tomando uma gigantesca proporção, por poder ser aplicada a todas as outras áreas e forma eficaz e efetiva.O BigData pode ajudar qualquer pessoa.O objetivo principal de um profissional de BigData é buscar soluções práticas e eficazes.Informações como estas que estão sendo geradas nestes relatórios, podem ser utilizadas em várias aplicações, como, por exemplo, sabendo-se que pessoas do sexo masculino, com m";"O primeiro passo é um estudo do objetivo a ser cumprido. Depois disso, deve-se criar uma curva de pertinência das informações, ou seja, ver quais são realmente necessárias. O próximo passo é a coleta das informações desejadas em fontes variadas e confiáveis, criando assim, um grande volume de dados. O tratamento de dados é a união desses vários dados dessas várias fontes, e o direcionamento deles aplicado no objetivo, para que não hajam informações irrelevantes ou desnecessárias. Essa filtragem da curva de pertinência pode gerar uma maior velocidade no processamento das informações.O tratamento de dados também é responsável pela parte de padronização de informações, como, por exemplo, trocar traços por barras em datas (- por /).";"Através de uma chave de acesso cedida pelo próprio Twitter, conseguimos acessar os posts em tempo real.Esses dados podem ser utilizados em pesquisas de satisfação, procurar as necessidades dos clientes, etc.Supondo que uma empresa deseje saber o que seus clientes estão dizendo sobre seus produtos. Ela pode utilizar palavras chave para verificar a qualidade do produto segundo seus clientes.";O cientista de dados é responsável pela coleta de informações, análise de curva de pertinência, organização dos dados e entrega final.;"Volume - É a quantidade de dados que será analisada;Variedade - Dados variados dão informações mais abrangentes e precisas;Veracidade - Os dados coletados devem ser confiáveis, ou seja, verdadeiros;Velocidade - A tecnologia não tem tempo para esperar. Quanto mais rápido o processamento dos dados, maior o valor da entrega;Valor - Toda informação tem valor, e se ela está organizada o valor aumenta consideravelmente."; Para que os dados sem mais abrangentes e precisos. Caso não haja variedade de dados, eles serão muito pouco minuciosos. Uma grande variedade de dados pode oferecer uma maior segurança na informação, afetando diretamente na veracidade das próprias.;"1- Coleta de dados - Os dados geralmente são encontrados de forma não-estruturada. Cabe ao cientista de dados encontrá-los e organizá-los, tornando-os assim, dados estruturados. Para isso é necessário uma boa quantidade de dados coletados de forma variada, ou seja, vários dados de várias fontes.2- Armazenamento - Os dados coletados precisam ser guardados em algum lugar, de forma segura e organizada.3- Combinação - Os dados precisam ter correlações, coisas em comum, para que não sejam "jogados" de qualquer forma, e sim de forma organizada e padronizada.4- Análise - Os dados precisam ser analisados, formando uma curva de pertinência de quais dados são realmente relevantes e importantes para o objetivo final.5- Visualização - É a entrega dos dados já organizados de forma que seja facilmente analisado pelo cliente, e visto que as informações sejam eficazes e eficientes para seu objetivo.""- Coleta de dados - Os dados geralmente são encontrados de forma não-estruturada. Cabe ao cientista de dados encontrá-los e organizá-los, tornando-os assim, dados estruturados. Para isso é necessário uma boa quantidade de dados coletados de forma variada, ou seja, vários dados de várias fontes.2- Armazenamento - Os dados coletados precisam ser guardados em algum lugar, de forma segura e organizada.3- Co"
Tales Gava Marchetti;BigData é a área técnica que trabalha com grande quantidade de dados, mas vale destacar que umas das principais funções de um Técnico em BigData é coo-relacionar dados relevantes afim de vender informações estratégicas para seu cliente, ou seja, basicamente em uma grande quantidade de dados o Técnico deve ser capaz de filtrar aquilo que é relevante para o cliente e de forma estratégica vender para ele aumentado a produtividade de seu cliente como beneficio ou ate mesmo solucionar algum problema;O tratamento de dados tem como base filtrar em uma lista ou arquivo aquilo que é relevante e que ira ser usado a fim de diminuir a quantidade de dados inúteis ou sem importância para aquela aplicação especifica, isso normalmente é feito relacionando com outros dados juntando em um novo arquivo propondo um melhor desempenho e veracidade já que alguns dados podem estar inválidos e estes são inúteis;A internet disponibiliza milhões de dados/informações por minuto e isso muitas das vezes são irrelevantes porem algumas são relevantes e de suma importância ,como por exemplos assuntos do momento, onde se uma empresa tem conhecimento que um assunto de sua areá esta em alta eis que surge uma bela oportunidade de investir em marketing a fim de aumentar a suas vendas, outro exemplos seria identificar necessidades das pessoas e investir nessa necessidade a fim de vender ;Um dos principais papel pois este ira Aplicar os 5 v's de BigData e ira trabalhar diretamente com dados, já que ele sera responsável por entregar os dados já filtrados e prontos para serem trabalhados e executados para o próxima da cadeia de hierarquia, normalmente/antigamente os cientista de dados não precisava ter um conhecimento a fundo de programão , porem isto vem mudando nos últimos dias onde o mesmo deve ter uma base logica e de programação;"Volume - É a quantidade de dados que um mesmo dado tem podendo ter vários atributos do mesmo dadoVeracidade - Validação dos dados, ver se eles realmente coincidem e são valores verdadeiros Velocidade - A velocidade que esses arquivos/dados são atualizadosVariedade - Variedade de opções e diferentes dados em um mesmo arquivo ou conjunto de dados Valor - O quanto essa informação vale para o cliente e o quanto ela realmente é importante para ter um valor para ela perante as outras";Porque a variedade de dados concede uma melhor variedade de informação relevantes e maior possibilidade de verificar a vericidade pois analisando pontos diferentes é possível notar uma grande diferençá e possíveis soluções e dados estratégicos alem de tirar de diversos dados diferentes uma media de um assunto, como por exemplo, assunto que se coincidem ou que possuem uma relação indireta ou ate mesmo um afetar o outro diretamente ou indiretamente como por exemplos na pratica uma insatisfação por um atendimento pode gerar diversas insatisfações derivadas da mesma;Representa, de forma exemplificada e visual os 5 v's do BigData com seus processos exemplificados de forma pratica, normalmente essa formula ou essa sequencia é como os dados são tratados e no fim visualizados 
Vinicius de Paula Alves;Uma grande quantidade de dados organizados para gerar valor, para que assim as informações se tornem fácil de se achar e de serem compreendidas.                               Big data é uma grande quantidade de dados estruturados e não estruturados que possam ser utilizados no cotidiano.;filtramos para as informações que estamos procurando, tentamos classificar elas, geramos variedades delas e achamos nosso público alvo que gostaria de receber essas informações.;Filtragem, e utilizar todos os dados coletados para fazer o perfil do usuário, para que futuramente possamos colocar anúncios , mensagens que essas pessoas teriam interesse de comprar e ler.;Coletar informações, perfis de consumidores fazer uma filtragem e por fim colocar anúncios que estes consumidores têm tendência a comprar ou pelo menos ficarem interessados.;Volume, valor, veracidade, variedade, velocidade.                 Volume=quantidade de dados Valor=o que podemos fazer com esses dados para gerar renda.                                                Veracidade=se a informação é verdadeira.                                     Variedade=diferentes tipos de informação                                      Velocidade=a velocidade que esses dados se atualizam.;Para uma informação correta e precisa sobre o que pode interessar certos perfis de usuários e o que eles gostariam de ver/receber em forma de anúncios e mensagens.;1- temos que fazer a coleta de dados, 2- temos que dar valor a informação, 3- combine os dados, 4- analisar os dados, 5- exibir os dados
Vinícius Moreira Hungaro;O BigData é uma formar de analise de muitos dados criando uma perspectiva do que ira acontecer ou do que a pessoa gosta  ;O tratamento tem que ser feito para evitar problemas no computador,  como a forma que é escrita a data com barra ou com hifén , tem que ser algo padrão para varios arquivos ;É possivel ser usado para ver o que as pessoas gostam ou o que elas nao gostam de determinado assunto ou produto,  para ver tendencias que as pessoas estão usando ou que vão usar ;O principal função dele é de analise dos dados que ele ou outro coletam, para ser usados para falar tendencias ou o que não está se usando ;"velocidade - lidar com dados de forma rapida verocidade - confirmar se o dado recebido é verdadeiro volume - ter muitos dados para se usarvariabilidade - ter dados diferentes para se compararvalor - que seja algo util ";É importante para que possa prever melhor as tendencias que pode ter no futuro ;É o ciclo de como o dado é coletado, analizados para ver se são uteis e verdadeiros e para ele ser exposto para ser utilizado da melhor forma possivel 